G04 #@! TF.FileFunction,Profile,NP*
%FSLAX46Y46*%
G04 Gerber Fmt 4.6, Leading zero omitted, Abs format (unit mm)*
G04 Created by KiCad (PCBNEW 4.0.7) date Monday, 08 July 2019 'PMt' 02:32:06 PM*
%MOMM*%
%LPD*%
G01*
G04 APERTURE LIST*
%ADD10C,0.100000*%
%ADD11C,0.150000*%
G04 APERTURE END LIST*
D10*
D11*
X75000000Y21500000D02*
X75000000Y0D01*
X75000000Y0D02*
X75000000Y21500000D01*
X100000000Y21500000D02*
X100000000Y0D01*
X75000000Y0D02*
X100000000Y0D01*
X75000000Y21500000D02*
X100000000Y21500000D01*
X100000000Y21500000D02*
X125000000Y21500000D01*
X100000000Y0D02*
X125000000Y0D01*
X125000000Y21500000D02*
X125000000Y0D01*
X100000000Y0D02*
X100000000Y21500000D01*
X100000000Y21500000D02*
X100000000Y0D01*
X50000000Y21500000D02*
X50000000Y0D01*
X50000000Y0D02*
X50000000Y21500000D01*
X75000000Y21500000D02*
X75000000Y0D01*
X50000000Y0D02*
X75000000Y0D01*
X50000000Y21500000D02*
X75000000Y21500000D01*
X25000000Y21500000D02*
X50000000Y21500000D01*
X25000000Y0D02*
X50000000Y0D01*
X50000000Y21500000D02*
X50000000Y0D01*
X25000000Y0D02*
X25000000Y21500000D01*
X0Y0D02*
X0Y21500000D01*
X25000000Y21500000D02*
X25000000Y0D01*
X0Y0D02*
X25000000Y0D01*
X0Y21500000D02*
X25000000Y21500000D01*
M02*
